<svg width="21" height="21" viewBox="0 0 21 21" fill="none" xmlns="http://www.w3.org/2000/svg">
<path d="M1.75 16.3147H19.25V17.5647H1.75V16.3147Z" fill="white"/>
<path d="M16.375 5.6897C16.875 5.1897 16.875 4.4397 16.375 3.9397L14.125 1.6897C13.625 1.1897 12.875 1.1897 12.375 1.6897L3 11.0647V15.0647H7L16.375 5.6897ZM13.25 2.5647L15.5 4.8147L13.625 6.6897L11.375 4.4397L13.25 2.5647ZM4.25 13.8147V11.5647L10.5 5.3147L12.75 7.5647L6.5 13.8147H4.25Z" fill="white"/>
</svg>
