<svg width="55" height="56" viewBox="0 0 55 56" fill="none" xmlns="http://www.w3.org/2000/svg">
    <defs>
        <filter id="filter0_d_1023_3557" x="0" y="0.389771" width="54.6833" height="54.6835" filterUnits="userSpaceOnUse" color-interpolation-filters="sRGB">
            <feFlood flood-opacity="0" result="BackgroundImageFix"/>
            <feColorMatrix in="SourceAlpha" type="matrix" values="0 0 0 0 0 0 0 0 0 0 0 0 0 0 0 0 0 0 127 0" result="hardAlpha"/>
            <feOffset dy="4"/>
            <feGaussianBlur stdDeviation="4"/>
            <feComposite in2="hardAlpha" operator="out"/>
            <feColorMatrix type="matrix" values="0 0 0 0 0.960784 0 0 0 0 0.552941 0 0 0 0 0.180392 0 0 0 0.5 0"/>
            <feBlend mode="normal" in2="BackgroundImageFix" result="effect1_dropShadow_1023_3557"/>
            <feBlend mode="normal" in="SourceGraphic" in2="effect1_dropShadow_1023_3557" result="shape"/>
        </filter>
        <linearGradient id="paint0_linear_1023_3557" x1="27.3417" y1="4.38977" x2="27.3417" y2="43.0732" gradientUnits="userSpaceOnUse">
            <stop stop-color="#F58D2D"/>
            <stop offset="1" stop-color="#FCBA8B"/>
        </linearGradient>
    </defs><g filter="url(#filter0_d_1023_3557)">
<path d="M35.938 4.38977H18.7454C12.8109 4.38977 8 9.20065 8 15.1352V32.3278C8 38.2623 12.8109 43.0732 18.7454 43.0732H35.938C41.8726 43.0732 46.6835 38.2623 46.6835 32.3278V15.1352C46.6835 9.20065 41.8726 4.38977 35.938 4.38977Z" fill="url(#paint0_linear_1023_3557)"/>
<path d="M26.2098 14.9269L34.7764 16.1517L36 24.7184L28.0466 32.6734C27.9662 32.7538 27.8709 32.8175 27.7659 32.861C27.6609 32.9045 27.5484 32.9269 27.4348 32.9269C27.3211 32.9269 27.2086 32.9045 27.1036 32.861C26.9987 32.8175 26.9033 32.7538 26.823 32.6734L18.2535 24.1053C18.1731 24.025 18.1094 23.9296 18.0659 23.8247C18.0224 23.7197 18 23.6072 18 23.4936C18 23.38 18.0224 23.2675 18.0659 23.1625C18.1094 23.0575 18.1731 22.9622 18.2535 22.8819L26.2098 14.9269ZM26.8216 16.7634L20.0903 23.4936L27.4348 30.8369L34.166 24.1067L33.249 17.6817L26.8216 16.7634ZM28.6499 22.2702C28.3805 22.0006 28.2076 21.6497 28.158 21.2719C28.1084 20.8941 28.1848 20.5105 28.3755 20.1805C28.5662 19.8506 28.8604 19.5928 29.2126 19.447C29.5647 19.3013 29.9551 19.2759 30.3232 19.3746C30.6913 19.4734 31.0166 19.6908 31.2485 19.9932C31.4804 20.2956 31.606 20.666 31.6059 21.0471C31.6058 21.4281 31.4799 21.7985 31.2478 22.1008C31.0157 22.403 30.6904 22.6202 30.3222 22.7188C30.0286 22.7973 29.7195 22.7972 29.426 22.7185C29.1324 22.6397 28.8648 22.4851 28.6499 22.2702Z" fill="white"/>
<path d="M26.2098 14.9269L34.7764 16.1517L36 24.7184L28.0466 32.6734C27.9662 32.7538 27.8709 32.8175 27.7659 32.861C27.6609 32.9045 27.5484 32.9269 27.4348 32.9269C27.3211 32.9269 27.2086 32.9045 27.1036 32.861C26.9987 32.8175 26.9033 32.7538 26.823 32.6734L18.2535 24.1053C18.1731 24.025 18.1094 23.9296 18.0659 23.8247C18.0224 23.7197 18 23.6072 18 23.4936C18 23.38 18.0224 23.2675 18.0659 23.1625C18.1094 23.0575 18.1731 22.9622 18.2535 22.8819L26.2098 14.9269ZM26.8216 16.7634L20.0903 23.4936L27.4348 30.8369L34.166 24.1067L33.249 17.6817L26.8216 16.7634ZM28.6499 22.2702C28.3805 22.0006 28.2076 21.6497 28.158 21.2719C28.1084 20.8941 28.1848 20.5105 28.3755 20.1805C28.5662 19.8506 28.8604 19.5928 29.2126 19.447C29.5647 19.3013 29.9551 19.2759 30.3232 19.3746C30.6913 19.4734 31.0166 19.6908 31.2485 19.9932C31.4804 20.2956 31.606 20.666 31.6059 21.0471C31.6058 21.4281 31.4799 21.7985 31.2478 22.1008C31.0157 22.403 30.6904 22.6202 30.3222 22.7188C30.0286 22.7973 29.7195 22.7972 29.426 22.7185C29.1324 22.6397 28.8648 22.4851 28.6499 22.2702Z" fill="white"/>
</g>

</svg>
