<svg width="30" height="31" viewBox="0 0 30 31" fill="none" xmlns="http://www.w3.org/2000/svg">
<path d="M26 0.5H4C1.79086 0.5 0 2.29086 0 4.5V26.5C0 28.7091 1.79086 30.5 4 30.5H26C28.2091 30.5 30 28.7091 30 26.5V4.5C30 2.29086 28.2091 0.5 26 0.5Z" fill="#F3F7FD"/>
<path d="M23.8 9.40424C23.7998 9.03442 23.6562 8.67908 23.3995 8.4129C23.1427 8.14672 22.7928 7.99043 22.4232 7.97688V7.97424H7.70656V7.9782C7.68104 7.97688 7.65574 7.97424 7.63 7.97424C7.33426 7.97443 7.04585 8.06631 6.8045 8.23723C6.56315 8.40814 6.38073 8.64968 6.28235 8.92858C6.18398 9.20748 6.1745 9.51002 6.25522 9.79453C6.33594 10.079 6.50288 10.3315 6.73306 10.5172L13.3639 17.1478L13.3636 21.2396V21.2735H13.3669C13.3725 21.3996 13.41 21.5223 13.4759 21.6301C13.5418 21.7378 13.634 21.8271 13.7438 21.8895L13.7418 21.893L15.4737 22.8929C15.4882 22.903 15.5042 22.9103 15.5194 22.9193L15.5256 22.9228V22.9226C15.636 22.9864 15.7627 23.0258 15.8996 23.0258C15.9983 23.0258 16.096 23.0064 16.1872 22.9686C16.2784 22.9309 16.3613 22.8755 16.431 22.8057C16.5008 22.7359 16.5562 22.6531 16.594 22.5619C16.6317 22.4707 16.6511 22.3729 16.6511 22.2742C16.6511 22.2544 16.6467 22.2357 16.6454 22.2164H16.6511V17.154L23.3428 10.4624L23.3362 10.4558C23.4824 10.3224 23.5991 10.16 23.6789 9.97891C23.7588 9.79785 23.8 9.60213 23.8 9.40424ZM11.0948 10.8342H11.0979L11.0981 10.8375L11.0948 10.8342Z" fill="#004958"/>
</svg>
